%YAML 1.1
%TAG !u! tag:unity3d.com,2011:
--- !u!1001 &100100000
Prefab:
  m_ObjectHideFlags: 1
  serializedVersion: 2
  m_Modification:
    m_TransformParent: {fileID: 0}
    m_Modifications: []
    m_RemovedComponents: []
  m_ParentPrefab: {fileID: 0}
  m_RootGameObject: {fileID: 1659844588900996}
  m_IsPrefabParent: 1
--- !u!1 &1659844588900996
GameObject:
  m_ObjectHideFlags: 0
  m_PrefabParentObject: {fileID: 0}
  m_PrefabInternal: {fileID: 100100000}
  serializedVersion: 5
  m_Component:
  - component: {fileID: 4618399981039312}
  - component: {fileID: 114970646376783136}
  - component: {fileID: 23645923297946096}
  - component: {fileID: 33070572644443030}
  - component: {fileID: 114958703644217088}
  - component: {fileID: 64543238377969604}
  m_Layer: 0
  m_Name: Door_Support
  m_TagString: Untagged
  m_Icon: {fileID: 0}
  m_NavMeshLayer: 0
  m_StaticEditorFlags: 127
  m_IsActive: 1
--- !u!4 &4618399981039312
Transform:
  m_ObjectHideFlags: 1
  m_PrefabParentObject: {fileID: 0}
  m_PrefabInternal: {fileID: 100100000}
  m_GameObject: {fileID: 1659844588900996}
  m_LocalRotation: {x: -0, y: -0, z: -0, w: 1}
  m_LocalPosition: {x: 21, y: 196.87585, z: -595.31}
  m_LocalScale: {x: 1, y: 1, z: 1}
  m_Children: []
  m_Father: {fileID: 0}
  m_RootOrder: 0
  m_LocalEulerAnglesHint: {x: 0, y: -270, z: 0}
--- !u!23 &23645923297946096
MeshRenderer:
  m_ObjectHideFlags: 1
  m_PrefabParentObject: {fileID: 0}
  m_PrefabInternal: {fileID: 100100000}
  m_GameObject: {fileID: 1659844588900996}
  m_Enabled: 1
  m_CastShadows: 2
  m_ReceiveShadows: 1
  m_DynamicOccludee: 1
  m_MotionVectors: 1
  m_LightProbeUsage: 1
  m_ReflectionProbeUsage: 1
  m_RenderingLayerMask: 4294967295
  m_Materials:
  - {fileID: 2100000, guid: 6acd3e92c81502840aa691fb811b811a, type: 2}
  m_StaticBatchInfo:
    firstSubMesh: 0
    subMeshCount: 0
  m_StaticBatchRoot: {fileID: 0}
  m_ProbeAnchor: {fileID: 0}
  m_LightProbeVolumeOverride: {fileID: 0}
  m_ScaleInLightmap: 1
  m_PreserveUVs: 0
  m_IgnoreNormalsForChartDetection: 0
  m_ImportantGI: 0
  m_StitchLightmapSeams: 0
  m_SelectedEditorRenderState: 2
  m_MinimumChartSize: 4
  m_AutoUVMaxDistance: 0.5
  m_AutoUVMaxAngle: 89
  m_LightmapParameters: {fileID: 0}
  m_SortingLayerID: 0
  m_SortingLayer: 0
  m_SortingOrder: 0
--- !u!33 &33070572644443030
MeshFilter:
  m_ObjectHideFlags: 1
  m_PrefabParentObject: {fileID: 0}
  m_PrefabInternal: {fileID: 100100000}
  m_GameObject: {fileID: 1659844588900996}
  m_Mesh: {fileID: 0}
--- !u!64 &64543238377969604
MeshCollider:
  m_ObjectHideFlags: 1
  m_PrefabParentObject: {fileID: 0}
  m_PrefabInternal: {fileID: 100100000}
  m_GameObject: {fileID: 1659844588900996}
  m_Material: {fileID: 0}
  m_IsTrigger: 0
  m_Enabled: 1
  serializedVersion: 3
  m_Convex: 0
  m_CookingOptions: 14
  m_SkinWidth: 0.01
  m_Mesh: {fileID: 0}
--- !u!114 &114958703644217088
MonoBehaviour:
  m_ObjectHideFlags: 1
  m_PrefabParentObject: {fileID: 0}
  m_PrefabInternal: {fileID: 100100000}
  m_GameObject: {fileID: 1659844588900996}
  m_Enabled: 1
  m_EditorHideFlags: 0
  m_Script: {fileID: 185759285, guid: 0472bdc8d6d15384d98f22ee34302f9c, type: 3}
  m_Name: 
  m_EditorClassIdentifier: 
  _quads:
  - _indices: 000000000100000002000000010000000300000002000000
    _distinctIndices: 00000000010000000200000003000000
    _edges:
    - x: 0
      y: 1
    - x: 2
      y: 0
    - x: 1
      y: 3
    - x: 3
      y: 2
    _smoothingGroup: 0
    _uv:
      useWorldSpace: 0
      flipU: 0
      flipV: 0
      swapUV: 0
      fill: 0
      scale: {x: 0, y: 0}
      offset: {x: -0.47229543, y: 0.8319316}
      rotation: 90
      justify: 0
      localPivot: {x: 0, y: 0}
      localSize: {x: 0, y: 0}
      anchor: 6
    _mat: {fileID: 2100000, guid: 6acd3e92c81502840aa691fb811b811a, type: 2}
    manualUV: 1
    elementGroup: -1
    textureGroup: -1
  - _indices: 040000000500000006000000050000000700000006000000
    _distinctIndices: 04000000050000000600000007000000
    _edges:
    - x: 4
      y: 5
    - x: 6
      y: 4
    - x: 5
      y: 7
    - x: 7
      y: 6
    _smoothingGroup: 0
    _uv:
      useWorldSpace: 0
      flipU: 0
      flipV: 0
      swapUV: 0
      fill: 0
      scale: {x: 0, y: 0}
      offset: {x: -0.47229543, y: 0.8319316}
      rotation: 90
      justify: 0
      localPivot: {x: 0, y: 0}
      localSize: {x: 0, y: 0}
      anchor: 6
    _mat: {fileID: 2100000, guid: 6acd3e92c81502840aa691fb811b811a, type: 2}
    manualUV: 1
    elementGroup: -1
    textureGroup: -1
  - _indices: 08000000090000000a000000090000000b0000000a000000
    _distinctIndices: 08000000090000000a0000000b000000
    _edges:
    - x: 8
      y: 9
    - x: 10
      y: 8
    - x: 9
      y: 11
    - x: 11
      y: 10
    _smoothingGroup: 0
    _uv:
      useWorldSpace: 0
      flipU: 0
      flipV: 0
      swapUV: 0
      fill: 0
      scale: {x: 0, y: 0}
      offset: {x: -0.47229543, y: 0.3319316}
      rotation: 90
      justify: 0
      localPivot: {x: 0, y: 0}
      localSize: {x: 0, y: 0}
      anchor: 6
    _mat: {fileID: 2100000, guid: 6acd3e92c81502840aa691fb811b811a, type: 2}
    manualUV: 1
    elementGroup: -1
    textureGroup: -1
  - _indices: 0c0000000d0000000e0000000d0000000f0000000e000000
    _distinctIndices: 0c0000000d0000000e0000000f000000
    _edges:
    - x: 12
      y: 13
    - x: 14
      y: 12
    - x: 13
      y: 15
    - x: 15
      y: 14
    _smoothingGroup: 0
    _uv:
      useWorldSpace: 0
      flipU: 0
      flipV: 0
      swapUV: 0
      fill: 0
      scale: {x: 0, y: 0}
      offset: {x: -0.47229543, y: 0.8319316}
      rotation: 90
      justify: 0
      localPivot: {x: 0, y: 0}
      localSize: {x: 0, y: 0}
      anchor: 6
    _mat: {fileID: 2100000, guid: 6acd3e92c81502840aa691fb811b811a, type: 2}
    manualUV: 1
    elementGroup: -1
    textureGroup: -1
  - _indices: 100000001100000012000000110000001300000012000000
    _distinctIndices: 10000000110000001200000013000000
    _edges:
    - x: 16
      y: 17
    - x: 18
      y: 16
    - x: 17
      y: 19
    - x: 19
      y: 18
    _smoothingGroup: 0
    _uv:
      useWorldSpace: 0
      flipU: 0
      flipV: 0
      swapUV: 0
      fill: 0
      scale: {x: 0, y: 0}
      offset: {x: -0.47229543, y: 0.8319316}
      rotation: 90
      justify: 0
      localPivot: {x: 0, y: 0}
      localSize: {x: 0, y: 0}
      anchor: 6
    _mat: {fileID: 2100000, guid: 6acd3e92c81502840aa691fb811b811a, type: 2}
    manualUV: 1
    elementGroup: -1
    textureGroup: -1
  - _indices: 140000001500000016000000150000001700000016000000
    _distinctIndices: 14000000150000001600000017000000
    _edges:
    - x: 20
      y: 21
    - x: 22
      y: 20
    - x: 21
      y: 23
    - x: 23
      y: 22
    _smoothingGroup: 0
    _uv:
      useWorldSpace: 0
      flipU: 0
      flipV: 0
      swapUV: 0
      fill: 0
      scale: {x: 0, y: 0}
      offset: {x: -0.47229543, y: 0.8319316}
      rotation: 90
      justify: 0
      localPivot: {x: 0, y: 0}
      localSize: {x: 0, y: 0}
      anchor: 6
    _mat: {fileID: 2100000, guid: 6acd3e92c81502840aa691fb811b811a, type: 2}
    manualUV: 1
    elementGroup: -1
    textureGroup: -1
  - _indices: 18000000190000001a000000190000001b0000001a000000
    _distinctIndices: 18000000190000001a0000001b000000
    _edges:
    - x: 24
      y: 25
    - x: 26
      y: 24
    - x: 25
      y: 27
    - x: 27
      y: 26
    _smoothingGroup: 0
    _uv:
      useWorldSpace: 0
      flipU: 0
      flipV: 0
      swapUV: 0
      fill: 0
      scale: {x: 0, y: 0}
      offset: {x: -0.47229543, y: 0.8319316}
      rotation: 90
      justify: 0
      localPivot: {x: 0, y: 0}
      localSize: {x: 0, y: 0}
      anchor: 6
    _mat: {fileID: 2100000, guid: 6acd3e92c81502840aa691fb811b811a, type: 2}
    manualUV: 1
    elementGroup: -1
    textureGroup: -1
  - _indices: 1c0000001d0000001e0000001d0000001f0000001e000000
    _distinctIndices: 1c0000001d0000001e0000001f000000
    _edges:
    - x: 28
      y: 29
    - x: 30
      y: 28
    - x: 29
      y: 31
    - x: 31
      y: 30
    _smoothingGroup: 0
    _uv:
      useWorldSpace: 0
      flipU: 0
      flipV: 0
      swapUV: 0
      fill: 0
      scale: {x: 0, y: 0}
      offset: {x: -0.47229543, y: 0.8319316}
      rotation: 90
      justify: 0
      localPivot: {x: 0, y: 0}
      localSize: {x: 0, y: 0}
      anchor: 6
    _mat: {fileID: 2100000, guid: 6acd3e92c81502840aa691fb811b811a, type: 2}
    manualUV: 1
    elementGroup: -1
    textureGroup: -1
  - _indices: 200000002100000022000000210000002300000022000000
    _distinctIndices: 20000000210000002200000023000000
    _edges:
    - x: 32
      y: 33
    - x: 34
      y: 32
    - x: 33
      y: 35
    - x: 35
      y: 34
    _smoothingGroup: 0
    _uv:
      useWorldSpace: 0
      flipU: 0
      flipV: 0
      swapUV: 0
      fill: 0
      scale: {x: 0, y: 0}
      offset: {x: -0.47229543, y: 0.8319316}
      rotation: 90
      justify: 0
      localPivot: {x: 0, y: 0}
      localSize: {x: 0, y: 0}
      anchor: 6
    _mat: {fileID: 2100000, guid: 6acd3e92c81502840aa691fb811b811a, type: 2}
    manualUV: 1
    elementGroup: -1
    textureGroup: -1
  - _indices: 240000002500000026000000250000002700000026000000
    _distinctIndices: 24000000250000002600000027000000
    _edges:
    - x: 36
      y: 37
    - x: 38
      y: 36
    - x: 37
      y: 39
    - x: 39
      y: 38
    _smoothingGroup: 0
    _uv:
      useWorldSpace: 0
      flipU: 0
      flipV: 0
      swapUV: 0
      fill: 0
      scale: {x: 0, y: 0}
      offset: {x: -0.47229543, y: 0.3319316}
      rotation: 90
      justify: 0
      localPivot: {x: 0.31417623, y: 0.5}
      localSize: {x: 0, y: 0}
      anchor: 6
    _mat: {fileID: 2100000, guid: 6acd3e92c81502840aa691fb811b811a, type: 2}
    manualUV: 0
    elementGroup: -1
    textureGroup: -1
  - _indices: 28000000290000002a000000290000002b0000002a000000
    _distinctIndices: 28000000290000002a0000002b000000
    _edges:
    - x: 40
      y: 41
    - x: 42
      y: 40
    - x: 41
      y: 43
    - x: 43
      y: 42
    _smoothingGroup: 0
    _uv:
      useWorldSpace: 0
      flipU: 0
      flipV: 0
      swapUV: 0
      fill: 0
      scale: {x: 0, y: 0}
      offset: {x: -0.47229543, y: 0.3319316}
      rotation: 90
      justify: 0
      localPivot: {x: 0.5, y: 0.025855985}
      localSize: {x: 0, y: 0}
      anchor: 6
    _mat: {fileID: 2100000, guid: 6acd3e92c81502840aa691fb811b811a, type: 2}
    manualUV: 0
    elementGroup: -1
    textureGroup: -1
  - _indices: 2c0000002d0000002e0000002d0000002f0000002e000000
    _distinctIndices: 2c0000002d0000002e0000002f000000
    _edges:
    - x: 44
      y: 45
    - x: 46
      y: 44
    - x: 45
      y: 47
    - x: 47
      y: 46
    _smoothingGroup: 0
    _uv:
      useWorldSpace: 0
      flipU: 0
      flipV: 0
      swapUV: 0
      fill: 0
      scale: {x: 0, y: 0}
      offset: {x: -0.47229543, y: 0.3319316}
      rotation: 90
      justify: 0
      localPivot: {x: 0.5, y: 0.025855985}
      localSize: {x: 0, y: 0}
      anchor: 6
    _mat: {fileID: 2100000, guid: 6acd3e92c81502840aa691fb811b811a, type: 2}
    manualUV: 0
    elementGroup: -1
    textureGroup: -1
  - _indices: 300000003100000032000000310000003300000032000000
    _distinctIndices: 30000000310000003200000033000000
    _edges:
    - x: 48
      y: 49
    - x: 50
      y: 48
    - x: 49
      y: 51
    - x: 51
      y: 50
    _smoothingGroup: 0
    _uv:
      useWorldSpace: 0
      flipU: 0
      flipV: 0
      swapUV: 0
      fill: 0
      scale: {x: 0, y: 0}
      offset: {x: -0.47229543, y: 0.3319316}
      rotation: 90
      justify: 0
      localPivot: {x: 0.31417623, y: 0.5}
      localSize: {x: 0, y: 0}
      anchor: 6
    _mat: {fileID: 2100000, guid: 6acd3e92c81502840aa691fb811b811a, type: 2}
    manualUV: 0
    elementGroup: -1
    textureGroup: -1
  - _indices: 340000003500000036000000350000003700000036000000
    _distinctIndices: 34000000350000003600000037000000
    _edges:
    - x: 52
      y: 53
    - x: 54
      y: 52
    - x: 53
      y: 55
    - x: 55
      y: 54
    _smoothingGroup: 0
    _uv:
      useWorldSpace: 0
      flipU: 0
      flipV: 0
      swapUV: 0
      fill: 0
      scale: {x: 0, y: 0}
      offset: {x: -0.47229543, y: 0.8319316}
      rotation: 90
      justify: 0
      localPivot: {x: 0.31417623, y: 0.5}
      localSize: {x: 0, y: 0}
      anchor: 6
    _mat: {fileID: 2100000, guid: 6acd3e92c81502840aa691fb811b811a, type: 2}
    manualUV: 0
    elementGroup: -1
    textureGroup: -1
  - _indices: 38000000390000003a000000390000003b0000003a000000
    _distinctIndices: 38000000390000003a0000003b000000
    _edges:
    - x: 56
      y: 57
    - x: 58
      y: 56
    - x: 57
      y: 59
    - x: 59
      y: 58
    _smoothingGroup: 0
    _uv:
      useWorldSpace: 0
      flipU: 0
      flipV: 0
      swapUV: 0
      fill: 0
      scale: {x: 0, y: 0}
      offset: {x: -0.47229543, y: 0.8319316}
      rotation: 90
      justify: 0
      localPivot: {x: 0.5, y: 0.40859723}
      localSize: {x: 0, y: 0}
      anchor: 6
    _mat: {fileID: 2100000, guid: 6acd3e92c81502840aa691fb811b811a, type: 2}
    manualUV: 0
    elementGroup: -1
    textureGroup: -1
  - _indices: 3c0000003d0000003e0000003d0000003f0000003e000000
    _distinctIndices: 3c0000003d0000003e0000003f000000
    _edges:
    - x: 60
      y: 61
    - x: 62
      y: 60
    - x: 61
      y: 63
    - x: 63
      y: 62
    _smoothingGroup: 0
    _uv:
      useWorldSpace: 0
      flipU: 0
      flipV: 0
      swapUV: 0
      fill: 0
      scale: {x: 0, y: 0}
      offset: {x: -0.47229543, y: 0.8319316}
      rotation: 90
      justify: 0
      localPivot: {x: 0.5, y: 0.40859723}
      localSize: {x: 0, y: 0}
      anchor: 6
    _mat: {fileID: 2100000, guid: 6acd3e92c81502840aa691fb811b811a, type: 2}
    manualUV: 0
    elementGroup: -1
    textureGroup: -1
  - _indices: 400000004100000042000000410000004300000042000000
    _distinctIndices: 40000000410000004200000043000000
    _edges:
    - x: 64
      y: 65
    - x: 66
      y: 64
    - x: 65
      y: 67
    - x: 67
      y: 66
    _smoothingGroup: 0
    _uv:
      useWorldSpace: 0
      flipU: 0
      flipV: 0
      swapUV: 0
      fill: 0
      scale: {x: 0, y: 0}
      offset: {x: -0.47229543, y: 0.8319316}
      rotation: 90
      justify: 0
      localPivot: {x: 0.31417623, y: 0.5}
      localSize: {x: 0, y: 0}
      anchor: 6
    _mat: {fileID: 2100000, guid: 6acd3e92c81502840aa691fb811b811a, type: 2}
    manualUV: 0
    elementGroup: -1
    textureGroup: -1
  - _indices: 440000004500000046000000450000004700000046000000
    _distinctIndices: 44000000450000004600000047000000
    _edges:
    - x: 68
      y: 69
    - x: 70
      y: 68
    - x: 69
      y: 71
    - x: 71
      y: 70
    _smoothingGroup: 0
    _uv:
      useWorldSpace: 0
      flipU: 0
      flipV: 0
      swapUV: 0
      fill: 0
      scale: {x: 0, y: 0}
      offset: {x: -0.47229543, y: 0.8319316}
      rotation: 90
      justify: 0
      localPivot: {x: 0.31417623, y: 0.5}
      localSize: {x: 0, y: 0}
      anchor: 6
    _mat: {fileID: 2100000, guid: 6acd3e92c81502840aa691fb811b811a, type: 2}
    manualUV: 0
    elementGroup: -1
    textureGroup: -1
  - _indices: 48000000490000004a000000490000004b0000004a000000
    _distinctIndices: 48000000490000004a0000004b000000
    _edges:
    - x: 72
      y: 73
    - x: 74
      y: 72
    - x: 73
      y: 75
    - x: 75
      y: 74
    _smoothingGroup: 0
    _uv:
      useWorldSpace: 0
      flipU: 0
      flipV: 0
      swapUV: 0
      fill: 0
      scale: {x: 0, y: 0}
      offset: {x: -0.47229543, y: 0.8319316}
      rotation: 90
      justify: 0
      localPivot: {x: 0.5, y: 0.40859723}
      localSize: {x: 0, y: 0}
      anchor: 6
    _mat: {fileID: 2100000, guid: 6acd3e92c81502840aa691fb811b811a, type: 2}
    manualUV: 0
    elementGroup: -1
    textureGroup: -1
  - _indices: 4c0000004d0000004e0000004d0000004f0000004e000000
    _distinctIndices: 4c0000004d0000004e0000004f000000
    _edges:
    - x: 76
      y: 77
    - x: 78
      y: 76
    - x: 77
      y: 79
    - x: 79
      y: 78
    _smoothingGroup: 0
    _uv:
      useWorldSpace: 0
      flipU: 0
      flipV: 0
      swapUV: 0
      fill: 0
      scale: {x: 0, y: 0}
      offset: {x: -0.47229543, y: 0.8319316}
      rotation: 90
      justify: 0
      localPivot: {x: 0.5, y: 0.40859723}
      localSize: {x: 0, y: 0}
      anchor: 6
    _mat: {fileID: 2100000, guid: 6acd3e92c81502840aa691fb811b811a, type: 2}
    manualUV: 0
    elementGroup: -1
    textureGroup: -1
  - _indices: 500000005100000052000000510000005300000052000000
    _distinctIndices: 50000000510000005200000053000000
    _edges:
    - x: 80
      y: 81
    - x: 82
      y: 80
    - x: 81
      y: 83
    - x: 83
      y: 82
    _smoothingGroup: 0
    _uv:
      useWorldSpace: 0
      flipU: 0
      flipV: 0
      swapUV: 0
      fill: 0
      scale: {x: 0, y: 0}
      offset: {x: -0.47229543, y: 0.8319316}
      rotation: 90
      justify: 0
      localPivot: {x: 0.31417623, y: 0.5}
      localSize: {x: 0, y: 0}
      anchor: 6
    _mat: {fileID: 2100000, guid: 6acd3e92c81502840aa691fb811b811a, type: 2}
    manualUV: 0
    elementGroup: -1
    textureGroup: -1
  _sharedIndices:
  - array: 000000000f000000
  - array: 0d000000
  - array: 0100000012000000
  - array: 10000000
  - array: 020000000e0000003d00000040000000
  - array: 170000003f00000042000000
  - array: 0c0000002400000029000000350000003c000000
  - array: 08000000260000002b000000
  - array: 15000000370000003e000000
  - array: 03000000130000003800000041000000
  - array: 160000003a00000043000000
  - array: 11000000250000002c0000003400000039000000
  - array: 09000000270000002e000000
  - array: 14000000360000003b000000
  - array: 19000000
  - array: 040000001b000000
  - array: 180000002d00000030000000450000004c000000
  - array: 0b0000002f00000032000000
  - array: 21000000470000004e000000
  - array: 060000001a0000004d00000050000000
  - array: 230000004f00000052000000
  - array: 050000001e000000
  - array: 1c000000
  - array: 070000001f0000004800000051000000
  - array: 220000004a00000053000000
  - array: 1d00000028000000310000004400000049000000
  - array: 0a0000002a00000033000000
  - array: 20000000460000004b000000
  _vertices:
  - {x: 0.52056503, y: -0.8758545, z: 0.015014648}
  - {x: 0.52056503, y: -0.8758545, z: -0.015014648}
  - {x: 0.52056503, y: 0.87586975, z: 0.015014648}
  - {x: 0.52056503, y: 0.87586975, z: -0.015014648}
  - {x: -0.52056503, y: -0.8758545, z: -0.015014648}
  - {x: -0.52056503, y: -0.8758545, z: 0.015014648}
  - {x: -0.52056503, y: 0.87586975, z: -0.015014648}
  - {x: -0.52056503, y: 0.87586975, z: 0.015014648}
  - {x: 0.46208382, y: 0.9236603, z: 0.015014648}
  - {x: 0.46208382, y: 0.9236603, z: -0.015014648}
  - {x: -0.46208382, y: 0.9236603, z: 0.015014648}
  - {x: -0.46208382, y: 0.9236603, z: -0.015014648}
  - {x: 0.46208382, y: 0.87586975, z: 0.015014648}
  - {x: 0.46208382, y: -0.8758545, z: 0.015014648}
  - {x: 0.52056503, y: 0.87586975, z: 0.015014648}
  - {x: 0.52056503, y: -0.8758545, z: 0.015014648}
  - {x: 0.46208382, y: -0.8758545, z: -0.015014648}
  - {x: 0.46208382, y: 0.87586975, z: -0.015014648}
  - {x: 0.52056503, y: -0.8758545, z: -0.015014648}
  - {x: 0.52056503, y: 0.87586975, z: -0.015014648}
  - {x: 0.46208382, y: 0.9236603, z: -0.015014648}
  - {x: 0.46208382, y: 0.9236603, z: 0.015014648}
  - {x: 0.52056503, y: 0.9236603, z: -0.015014648}
  - {x: 0.52056503, y: 0.9236603, z: 0.015014648}
  - {x: -0.46208382, y: 0.87586975, z: -0.015014648}
  - {x: -0.46208382, y: -0.8758545, z: -0.015014648}
  - {x: -0.52056503, y: 0.87586975, z: -0.015014648}
  - {x: -0.52056503, y: -0.8758545, z: -0.015014648}
  - {x: -0.46208382, y: -0.8758545, z: 0.015014648}
  - {x: -0.46208382, y: 0.87586975, z: 0.015014648}
  - {x: -0.52056503, y: -0.8758545, z: 0.015014648}
  - {x: -0.52056503, y: 0.87586975, z: 0.015014648}
  - {x: -0.46208382, y: 0.9236603, z: 0.015014648}
  - {x: -0.46208382, y: 0.9236603, z: -0.015014648}
  - {x: -0.52056503, y: 0.9236603, z: 0.015014648}
  - {x: -0.52056503, y: 0.9236603, z: -0.015014648}
  - {x: 0.46208382, y: 0.87586975, z: 0.015014648}
  - {x: 0.46208382, y: 0.87586975, z: -0.015014648}
  - {x: 0.46208382, y: 0.9236603, z: 0.015014648}
  - {x: 0.46208382, y: 0.9236603, z: -0.015014648}
  - {x: -0.46208382, y: 0.87586975, z: 0.015014648}
  - {x: 0.46208382, y: 0.87586975, z: 0.015014648}
  - {x: -0.46208382, y: 0.9236603, z: 0.015014648}
  - {x: 0.46208382, y: 0.9236603, z: 0.015014648}
  - {x: 0.46208382, y: 0.87586975, z: -0.015014648}
  - {x: -0.46208382, y: 0.87586975, z: -0.015014648}
  - {x: 0.46208382, y: 0.9236603, z: -0.015014648}
  - {x: -0.46208382, y: 0.9236603, z: -0.015014648}
  - {x: -0.46208382, y: 0.87586975, z: -0.015014648}
  - {x: -0.46208382, y: 0.87586975, z: 0.015014648}
  - {x: -0.46208382, y: 0.9236603, z: -0.015014648}
  - {x: -0.46208382, y: 0.9236603, z: 0.015014648}
  - {x: 0.46208382, y: 0.87586975, z: -0.015014648}
  - {x: 0.46208382, y: 0.87586975, z: 0.015014648}
  - {x: 0.46208382, y: 0.9236603, z: -0.015014648}
  - {x: 0.46208382, y: 0.9236603, z: 0.015014648}
  - {x: 0.52056503, y: 0.87586975, z: -0.015014648}
  - {x: 0.46208382, y: 0.87586975, z: -0.015014648}
  - {x: 0.52056503, y: 0.9236603, z: -0.015014648}
  - {x: 0.46208382, y: 0.9236603, z: -0.015014648}
  - {x: 0.46208382, y: 0.87586975, z: 0.015014648}
  - {x: 0.52056503, y: 0.87586975, z: 0.015014648}
  - {x: 0.46208382, y: 0.9236603, z: 0.015014648}
  - {x: 0.52056503, y: 0.9236603, z: 0.015014648}
  - {x: 0.52056503, y: 0.87586975, z: 0.015014648}
  - {x: 0.52056503, y: 0.87586975, z: -0.015014648}
  - {x: 0.52056503, y: 0.9236603, z: 0.015014648}
  - {x: 0.52056503, y: 0.9236603, z: -0.015014648}
  - {x: -0.46208382, y: 0.87586975, z: 0.015014648}
  - {x: -0.46208382, y: 0.87586975, z: -0.015014648}
  - {x: -0.46208382, y: 0.9236603, z: 0.015014648}
  - {x: -0.46208382, y: 0.9236603, z: -0.015014648}
  - {x: -0.52056503, y: 0.87586975, z: 0.015014648}
  - {x: -0.46208382, y: 0.87586975, z: 0.015014648}
  - {x: -0.52056503, y: 0.9236603, z: 0.015014648}
  - {x: -0.46208382, y: 0.9236603, z: 0.015014648}
  - {x: -0.46208382, y: 0.87586975, z: -0.015014648}
  - {x: -0.52056503, y: 0.87586975, z: -0.015014648}
  - {x: -0.46208382, y: 0.9236603, z: -0.015014648}
  - {x: -0.52056503, y: 0.9236603, z: -0.015014648}
  - {x: -0.52056503, y: 0.87586975, z: -0.015014648}
  - {x: -0.52056503, y: 0.87586975, z: 0.015014648}
  - {x: -0.52056503, y: 0.9236603, z: -0.015014648}
  - {x: -0.52056503, y: 0.9236603, z: 0.015014648}
  _uv:
  - {x: 0.99313504, y: 0.31954986}
  - {x: 0.97742456, y: 0.31954986}
  - {x: 0.9931349, y: 1.0003741}
  - {x: 0.97742444, y: 1.0003741}
  - {x: 1.0005546, y: 0.31954986}
  - {x: 0.99313504, y: 0.31954986}
  - {x: 1.0005546, y: 1.0003741}
  - {x: 0.9931349, y: 1.0003741}
  - {x: 0.99313504, y: 0.31954986}
  - {x: 1.0005546, y: 0.31954986}
  - {x: 0.99313504, y: 0.01679644}
  - {x: 1.0005546, y: 0.01679644}
  - {x: 0.48898768, y: -0.3319316}
  - {x: 0.48898768, y: -0.3319316}
  - {x: 0.48898768, y: -0.3319316}
  - {x: 0.48898768, y: -0.3319316}
  - {x: 0.48898768, y: -0.3319316}
  - {x: 0.48898768, y: -0.3319316}
  - {x: 0.48898768, y: -0.3319316}
  - {x: 0.48898768, y: -0.3319316}
  - {x: 0.9722954, y: -0.57518506}
  - {x: 0.9722954, y: -0.57518506}
  - {x: 0.9722954, y: -0.57518506}
  - {x: 0.9722954, y: -0.57518506}
  - {x: 0.48898768, y: -0.3319316}
  - {x: 0.48898768, y: -0.3319316}
  - {x: 0.48898768, y: -0.3319316}
  - {x: 0.48898768, y: -0.3319316}
  - {x: 0.48898768, y: -0.3319316}
  - {x: 0.48898768, y: -0.3319316}
  - {x: 0.48898768, y: -0.3319316}
  - {x: 0.48898768, y: -0.3319316}
  - {x: 0.9722954, y: -0.57518506}
  - {x: 0.9722954, y: -0.57518506}
  - {x: 0.9722954, y: -0.57518506}
  - {x: 0.9722954, y: -0.57518506}
  - {x: 0.78647166, y: 0.16806841}
  - {x: 0.78647166, y: 0.16806841}
  - {x: 0.78647166, y: 0.16806841}
  - {x: 0.78647166, y: 0.16806841}
  - {x: 0.9722954, y: -0.3060756}
  - {x: 0.9722954, y: -0.3060756}
  - {x: 0.9722954, y: -0.3060756}
  - {x: 0.9722954, y: -0.3060756}
  - {x: 0.9722954, y: -0.3060756}
  - {x: 0.9722954, y: -0.3060756}
  - {x: 0.9722954, y: -0.3060756}
  - {x: 0.9722954, y: -0.3060756}
  - {x: 0.78647166, y: 0.16806841}
  - {x: 0.78647166, y: 0.16806841}
  - {x: 0.78647166, y: 0.16806841}
  - {x: 0.78647166, y: 0.16806841}
  - {x: 0.78647166, y: -0.3319316}
  - {x: 0.78647166, y: -0.3319316}
  - {x: 0.78647166, y: -0.3319316}
  - {x: 0.78647166, y: -0.3319316}
  - {x: 0.9722954, y: -0.42333436}
  - {x: 0.9722954, y: -0.42333436}
  - {x: 0.9722954, y: -0.42333436}
  - {x: 0.9722954, y: -0.42333436}
  - {x: 0.9722954, y: -0.42333436}
  - {x: 0.9722954, y: -0.42333436}
  - {x: 0.9722954, y: -0.42333436}
  - {x: 0.9722954, y: -0.42333436}
  - {x: 0.78647166, y: -0.3319316}
  - {x: 0.78647166, y: -0.3319316}
  - {x: 0.78647166, y: -0.3319316}
  - {x: 0.78647166, y: -0.3319316}
  - {x: 0.78647166, y: -0.3319316}
  - {x: 0.78647166, y: -0.3319316}
  - {x: 0.78647166, y: -0.3319316}
  - {x: 0.78647166, y: -0.3319316}
  - {x: 0.9722954, y: -0.42333436}
  - {x: 0.9722954, y: -0.42333436}
  - {x: 0.9722954, y: -0.42333436}
  - {x: 0.9722954, y: -0.42333436}
  - {x: 0.9722954, y: -0.42333436}
  - {x: 0.9722954, y: -0.42333436}
  - {x: 0.9722954, y: -0.42333436}
  - {x: 0.9722954, y: -0.42333436}
  - {x: 0.78647166, y: -0.3319316}
  - {x: 0.78647166, y: -0.3319316}
  - {x: 0.78647166, y: -0.3319316}
  - {x: 0.78647166, y: -0.3319316}
  _uv3:
  - {x: 0, y: 0, z: 0, w: 0}
  - {x: 0, y: 0, z: 0, w: 0}
  - {x: 0, y: 0, z: 0, w: 0}
  - {x: 0, y: 0, z: 0, w: 0}
  - {x: 0, y: 0, z: 0, w: 0}
  - {x: 0, y: 0, z: 0, w: 0}
  - {x: 0, y: 0, z: 0, w: 0}
  - {x: 0, y: 0, z: 0, w: 0}
  - {x: 0, y: 0, z: 0, w: 0}
  - {x: 0, y: 0, z: 0, w: 0}
  - {x: 0, y: 0, z: 0, w: 0}
  - {x: 0, y: 0, z: 0, w: 0}
  - {x: 0, y: 0, z: 0, w: 0}
  - {x: 0, y: 0, z: 0, w: 0}
  - {x: 0, y: 0, z: 0, w: 0}
  - {x: 0, y: 0, z: 0, w: 0}
  - {x: 0, y: 0, z: 0, w: 0}
  - {x: 0, y: 0, z: 0, w: 0}
  - {x: 0, y: 0, z: 0, w: 0}
  - {x: 0, y: 0, z: 0, w: 0}
  - {x: 0, y: 0, z: 0, w: 0}
  - {x: 0, y: 0, z: 0, w: 0}
  - {x: 0, y: 0, z: 0, w: 0}
  - {x: 0, y: 0, z: 0, w: 0}
  - {x: 0, y: 0, z: 0, w: 0}
  - {x: 0, y: 0, z: 0, w: 0}
  - {x: 0, y: 0, z: 0, w: 0}
  - {x: 0, y: 0, z: 0, w: 0}
  - {x: 0, y: 0, z: 0, w: 0}
  - {x: 0, y: 0, z: 0, w: 0}
  - {x: 0, y: 0, z: 0, w: 0}
  - {x: 0, y: 0, z: 0, w: 0}
  - {x: 0, y: 0, z: 0, w: 0}
  - {x: 0, y: 0, z: 0, w: 0}
  - {x: 0, y: 0, z: 0, w: 0}
  - {x: 0, y: 0, z: 0, w: 0}
  - {x: 0, y: 0, z: 0, w: 0}
  - {x: 0, y: 0, z: 0, w: 0}
  - {x: 0, y: 0, z: 0, w: 0}
  - {x: 0, y: 0, z: 0, w: 0}
  - {x: 0, y: 0, z: 0, w: 0}
  - {x: 0, y: 0, z: 0, w: 0}
  - {x: 0, y: 0, z: 0, w: 0}
  - {x: 0, y: 0, z: 0, w: 0}
  - {x: 0, y: 0, z: 0, w: 0}
  - {x: 0, y: 0, z: 0, w: 0}
  - {x: 0, y: 0, z: 0, w: 0}
  - {x: 0, y: 0, z: 0, w: 0}
  - {x: 0, y: 0, z: 0, w: 0}
  - {x: 0, y: 0, z: 0, w: 0}
  - {x: 0, y: 0, z: 0, w: 0}
  - {x: 0, y: 0, z: 0, w: 0}
  - {x: 0, y: 0, z: 0, w: 0}
  - {x: 0, y: 0, z: 0, w: 0}
  - {x: 0, y: 0, z: 0, w: 0}
  - {x: 0, y: 0, z: 0, w: 0}
  - {x: 0, y: 0, z: 0, w: 0}
  - {x: 0, y: 0, z: 0, w: 0}
  - {x: 0, y: 0, z: 0, w: 0}
  - {x: 0, y: 0, z: 0, w: 0}
  - {x: 0, y: 0, z: 0, w: 0}
  - {x: 0, y: 0, z: 0, w: 0}
  - {x: 0, y: 0, z: 0, w: 0}
  - {x: 0, y: 0, z: 0, w: 0}
  - {x: 0, y: 0, z: 0, w: 0}
  - {x: 0, y: 0, z: 0, w: 0}
  - {x: 0, y: 0, z: 0, w: 0}
  - {x: 0, y: 0, z: 0, w: 0}
  - {x: 0, y: 0, z: 0, w: 0}
  - {x: 0, y: 0, z: 0, w: 0}
  - {x: 0, y: 0, z: 0, w: 0}
  - {x: 0, y: 0, z: 0, w: 0}
  - {x: 0, y: 0, z: 0, w: 0}
  - {x: 0, y: 0, z: 0, w: 0}
  - {x: 0, y: 0, z: 0, w: 0}
  - {x: 0, y: 0, z: 0, w: 0}
  - {x: 0, y: 0, z: 0, w: 0}
  - {x: 0, y: 0, z: 0, w: 0}
  - {x: 0, y: 0, z: 0, w: 0}
  - {x: 0, y: 0, z: 0, w: 0}
  - {x: 0, y: 0, z: 0, w: 0}
  - {x: 0, y: 0, z: 0, w: 0}
  - {x: 0, y: 0, z: 0, w: 0}
  - {x: 0, y: 0, z: 0, w: 0}
  - {x: 0, y: 0, z: 0, w: 0}
  - {x: 0, y: 0, z: 0, w: 0}
  - {x: 0, y: 0, z: 0, w: 0}
  - {x: 0, y: 0, z: 0, w: 0}
  - {x: 0, y: 0, z: 0, w: 0}
  - {x: 0, y: 0, z: 0, w: 0}
  - {x: 0, y: 0, z: 0, w: 0}
  - {x: 0, y: 0, z: 0, w: 0}
  - {x: 0, y: 0, z: 0, w: 0}
  - {x: 0, y: 0, z: 0, w: 0}
  - {x: 0, y: 0, z: 0, w: 0}
  - {x: 0, y: 0, z: 0, w: 0}
  - {x: 0, y: 0, z: 0, w: 0}
  - {x: 0, y: 0, z: 0, w: 0}
  - {x: 0, y: 0, z: 0, w: 0}
  - {x: 0, y: 0, z: 0, w: 0}
  - {x: 0, y: 0, z: 0, w: 0}
  - {x: 0, y: 0, z: 0, w: 0}
  - {x: 0, y: 0, z: 0, w: 0}
  - {x: 0, y: 0, z: 0, w: 0}
  _uv4:
  - {x: 0, y: 0, z: 0, w: 0}
  - {x: 0, y: 0, z: 0, w: 0}
  - {x: 0, y: 0, z: 0, w: 0}
  - {x: 0, y: 0, z: 0, w: 0}
  - {x: 0, y: 0, z: 0, w: 0}
  - {x: 0, y: 0, z: 0, w: 0}
  - {x: 0, y: 0, z: 0, w: 0}
  - {x: 0, y: 0, z: 0, w: 0}
  - {x: 0, y: 0, z: 0, w: 0}
  - {x: 0, y: 0, z: 0, w: 0}
  - {x: 0, y: 0, z: 0, w: 0}
  - {x: 0, y: 0, z: 0, w: 0}
  - {x: 0, y: 0, z: 0, w: 0}
  - {x: 0, y: 0, z: 0, w: 0}
  - {x: 0, y: 0, z: 0, w: 0}
  - {x: 0, y: 0, z: 0, w: 0}
  - {x: 0, y: 0, z: 0, w: 0}
  - {x: 0, y: 0, z: 0, w: 0}
  - {x: 0, y: 0, z: 0, w: 0}
  - {x: 0, y: 0, z: 0, w: 0}
  - {x: 0, y: 0, z: 0, w: 0}
  - {x: 0, y: 0, z: 0, w: 0}
  - {x: 0, y: 0, z: 0, w: 0}
  - {x: 0, y: 0, z: 0, w: 0}
  - {x: 0, y: 0, z: 0, w: 0}
  - {x: 0, y: 0, z: 0, w: 0}
  - {x: 0, y: 0, z: 0, w: 0}
  - {x: 0, y: 0, z: 0, w: 0}
  - {x: 0, y: 0, z: 0, w: 0}
  - {x: 0, y: 0, z: 0, w: 0}
  - {x: 0, y: 0, z: 0, w: 0}
  - {x: 0, y: 0, z: 0, w: 0}
  - {x: 0, y: 0, z: 0, w: 0}
  - {x: 0, y: 0, z: 0, w: 0}
  - {x: 0, y: 0, z: 0, w: 0}
  - {x: 0, y: 0, z: 0, w: 0}
  - {x: 0, y: 0, z: 0, w: 0}
  - {x: 0, y: 0, z: 0, w: 0}
  - {x: 0, y: 0, z: 0, w: 0}
  - {x: 0, y: 0, z: 0, w: 0}
  - {x: 0, y: 0, z: 0, w: 0}
  - {x: 0, y: 0, z: 0, w: 0}
  - {x: 0, y: 0, z: 0, w: 0}
  - {x: 0, y: 0, z: 0, w: 0}
  - {x: 0, y: 0, z: 0, w: 0}
  - {x: 0, y: 0, z: 0, w: 0}
  - {x: 0, y: 0, z: 0, w: 0}
  - {x: 0, y: 0, z: 0, w: 0}
  - {x: 0, y: 0, z: 0, w: 0}
  - {x: 0, y: 0, z: 0, w: 0}
  - {x: 0, y: 0, z: 0, w: 0}
  - {x: 0, y: 0, z: 0, w: 0}
  - {x: 0, y: 0, z: 0, w: 0}
  - {x: 0, y: 0, z: 0, w: 0}
  - {x: 0, y: 0, z: 0, w: 0}
  - {x: 0, y: 0, z: 0, w: 0}
  - {x: 0, y: 0, z: 0, w: 0}
  - {x: 0, y: 0, z: 0, w: 0}
  - {x: 0, y: 0, z: 0, w: 0}
  - {x: 0, y: 0, z: 0, w: 0}
  - {x: 0, y: 0, z: 0, w: 0}
  - {x: 0, y: 0, z: 0, w: 0}
  - {x: 0, y: 0, z: 0, w: 0}
  - {x: 0, y: 0, z: 0, w: 0}
  - {x: 0, y: 0, z: 0, w: 0}
  - {x: 0, y: 0, z: 0, w: 0}
  - {x: 0, y: 0, z: 0, w: 0}
  - {x: 0, y: 0, z: 0, w: 0}
  - {x: 0, y: 0, z: 0, w: 0}
  - {x: 0, y: 0, z: 0, w: 0}
  - {x: 0, y: 0, z: 0, w: 0}
  - {x: 0, y: 0, z: 0, w: 0}
  - {x: 0, y: 0, z: 0, w: 0}
  - {x: 0, y: 0, z: 0, w: 0}
  - {x: 0, y: 0, z: 0, w: 0}
  - {x: 0, y: 0, z: 0, w: 0}
  - {x: 0, y: 0, z: 0, w: 0}
  - {x: 0, y: 0, z: 0, w: 0}
  - {x: 0, y: 0, z: 0, w: 0}
  - {x: 0, y: 0, z: 0, w: 0}
  - {x: 0, y: 0, z: 0, w: 0}
  - {x: 0, y: 0, z: 0, w: 0}
  - {x: 0, y: 0, z: 0, w: 0}
  - {x: 0, y: 0, z: 0, w: 0}
  - {x: 0, y: 0, z: 0, w: 0}
  - {x: 0, y: 0, z: 0, w: 0}
  - {x: 0, y: 0, z: 0, w: 0}
  - {x: 0, y: 0, z: 0, w: 0}
  - {x: 0, y: 0, z: 0, w: 0}
  - {x: 0, y: 0, z: 0, w: 0}
  - {x: 0, y: 0, z: 0, w: 0}
  - {x: 0, y: 0, z: 0, w: 0}
  - {x: 0, y: 0, z: 0, w: 0}
  - {x: 0, y: 0, z: 0, w: 0}
  - {x: 0, y: 0, z: 0, w: 0}
  - {x: 0, y: 0, z: 0, w: 0}
  - {x: 0, y: 0, z: 0, w: 0}
  - {x: 0, y: 0, z: 0, w: 0}
  - {x: 0, y: 0, z: 0, w: 0}
  - {x: 0, y: 0, z: 0, w: 0}
  - {x: 0, y: 0, z: 0, w: 0}
  - {x: 0, y: 0, z: 0, w: 0}
  - {x: 0, y: 0, z: 0, w: 0}
  - {x: 0, y: 0, z: 0, w: 0}
  _tangents: []
  _sharedIndicesUV: []
  _colors:
  - {r: 1, g: 1, b: 1, a: 1}
  - {r: 1, g: 1, b: 1, a: 1}
  - {r: 1, g: 1, b: 1, a: 1}
  - {r: 1, g: 1, b: 1, a: 1}
  - {r: 1, g: 1, b: 1, a: 1}
  - {r: 1, g: 1, b: 1, a: 1}
  - {r: 1, g: 1, b: 1, a: 1}
  - {r: 1, g: 1, b: 1, a: 1}
  - {r: 1, g: 1, b: 1, a: 1}
  - {r: 1, g: 1, b: 1, a: 1}
  - {r: 1, g: 1, b: 1, a: 1}
  - {r: 1, g: 1, b: 1, a: 1}
  - {r: 1, g: 1, b: 1, a: 1}
  - {r: 1, g: 1, b: 1, a: 1}
  - {r: 1, g: 1, b: 1, a: 1}
  - {r: 1, g: 1, b: 1, a: 1}
  - {r: 1, g: 1, b: 1, a: 1}
  - {r: 1, g: 1, b: 1, a: 1}
  - {r: 1, g: 1, b: 1, a: 1}
  - {r: 1, g: 1, b: 1, a: 1}
  - {r: 1, g: 1, b: 1, a: 1}
  - {r: 1, g: 1, b: 1, a: 1}
  - {r: 1, g: 1, b: 1, a: 1}
  - {r: 1, g: 1, b: 1, a: 1}
  - {r: 1, g: 1, b: 1, a: 1}
  - {r: 1, g: 1, b: 1, a: 1}
  - {r: 1, g: 1, b: 1, a: 1}
  - {r: 1, g: 1, b: 1, a: 1}
  - {r: 1, g: 1, b: 1, a: 1}
  - {r: 1, g: 1, b: 1, a: 1}
  - {r: 1, g: 1, b: 1, a: 1}
  - {r: 1, g: 1, b: 1, a: 1}
  - {r: 1, g: 1, b: 1, a: 1}
  - {r: 1, g: 1, b: 1, a: 1}
  - {r: 1, g: 1, b: 1, a: 1}
  - {r: 1, g: 1, b: 1, a: 1}
  - {r: 1, g: 1, b: 1, a: 1}
  - {r: 1, g: 1, b: 1, a: 1}
  - {r: 1, g: 1, b: 1, a: 1}
  - {r: 1, g: 1, b: 1, a: 1}
  - {r: 1, g: 1, b: 1, a: 1}
  - {r: 1, g: 1, b: 1, a: 1}
  - {r: 1, g: 1, b: 1, a: 1}
  - {r: 1, g: 1, b: 1, a: 1}
  - {r: 1, g: 1, b: 1, a: 1}
  - {r: 1, g: 1, b: 1, a: 1}
  - {r: 1, g: 1, b: 1, a: 1}
  - {r: 1, g: 1, b: 1, a: 1}
  - {r: 1, g: 1, b: 1, a: 1}
  - {r: 1, g: 1, b: 1, a: 1}
  - {r: 1, g: 1, b: 1, a: 1}
  - {r: 1, g: 1, b: 1, a: 1}
  - {r: 1, g: 1, b: 1, a: 1}
  - {r: 1, g: 1, b: 1, a: 1}
  - {r: 1, g: 1, b: 1, a: 1}
  - {r: 1, g: 1, b: 1, a: 1}
  - {r: 1, g: 1, b: 1, a: 1}
  - {r: 1, g: 1, b: 1, a: 1}
  - {r: 1, g: 1, b: 1, a: 1}
  - {r: 1, g: 1, b: 1, a: 1}
  - {r: 1, g: 1, b: 1, a: 1}
  - {r: 1, g: 1, b: 1, a: 1}
  - {r: 1, g: 1, b: 1, a: 1}
  - {r: 1, g: 1, b: 1, a: 1}
  - {r: 1, g: 1, b: 1, a: 1}
  - {r: 1, g: 1, b: 1, a: 1}
  - {r: 1, g: 1, b: 1, a: 1}
  - {r: 1, g: 1, b: 1, a: 1}
  - {r: 1, g: 1, b: 1, a: 1}
  - {r: 1, g: 1, b: 1, a: 1}
  - {r: 1, g: 1, b: 1, a: 1}
  - {r: 1, g: 1, b: 1, a: 1}
  - {r: 1, g: 1, b: 1, a: 1}
  - {r: 1, g: 1, b: 1, a: 1}
  - {r: 1, g: 1, b: 1, a: 1}
  - {r: 1, g: 1, b: 1, a: 1}
  - {r: 1, g: 1, b: 1, a: 1}
  - {r: 1, g: 1, b: 1, a: 1}
  - {r: 1, g: 1, b: 1, a: 1}
  - {r: 1, g: 1, b: 1, a: 1}
  - {r: 1, g: 1, b: 1, a: 1}
  - {r: 1, g: 1, b: 1, a: 1}
  - {r: 1, g: 1, b: 1, a: 1}
  - {r: 1, g: 1, b: 1, a: 1}
  userCollisions: 0
  isSelectable: 1
  unwrapParameters:
    hardAngle: 88
    packMargin: 4
    angleError: 8
    areaError: 15
  asset_guid: 
  dontDestroyMeshOnDelete: 0
  m_selectedFaces: 
  m_SelectedEdges: []
  m_selectedTriangles: 
--- !u!114 &114970646376783136
MonoBehaviour:
  m_ObjectHideFlags: 1
  m_PrefabParentObject: {fileID: 0}
  m_PrefabInternal: {fileID: 100100000}
  m_GameObject: {fileID: 1659844588900996}
  m_Enabled: 1
  m_EditorHideFlags: 0
  m_Script: {fileID: 16342205, guid: 0472bdc8d6d15384d98f22ee34302f9c, type: 3}
  m_Name: 
  m_EditorClassIdentifier: 
  _entityType: 0
